module gitlab.com/lexachsar/image-generator

go 1.13

require (
	github.com/golang/freetype v0.0.0-20170609003504-e2365dfdc4a0
	github.com/joho/godotenv v1.3.0
	golang.org/x/image v0.0.0-20200927104501-e162460cd6b5
)
